HCORDIC_Verilog/HCORDIC_complete.vcd
$date
   Tue Mar 17 23:27:50 2015
$end
$version
  P.20131013
$end
$timescale
  1ps
$end
$scope module HCORDIC_complete_testbench $end
$var wire 1 ! Instruction_out [103] $end
$var wire 1 " Instruction_out [102] $end
$var wire 1 # Instruction_out [101] $end
$var wire 1 $ Instruction_out [100] $end
$var wire 1 % Instruction_out [99] $end
$var wire 1 & Instruction_out [98] $end
$var wire 1 ' Instruction_out [97] $end
$var wire 1 ( Instruction_out [96] $end
$var wire 1 ) Instruction_out [95] $end
$var wire 1 * Instruction_out [94] $end
$var wire 1 + Instruction_out [93] $end
$var wire 1 , Instruction_out [92] $end
$var wire 1 - Instruction_out [91] $end
$var wire 1 . Instruction_out [90] $end
$var wire 1 / Instruction_out [89] $end
$var wire 1 0 Instruction_out [88] $end
$var wire 1 1 Instruction_out [87] $end
$var wire 1 2 Instruction_out [86] $end
$var wire 1 3 Instruction_out [85] $end
$var wire 1 4 Instruction_out [84] $end
$var wire 1 5 Instruction_out [83] $end
$var wire 1 6 Instruction_out [82] $end
$var wire 1 7 Instruction_out [81] $end
$var wire 1 8 Instruction_out [80] $end
$var wire 1 9 Instruction_out [79] $end
$var wire 1 : Instruction_out [78] $end
$var wire 1 ; Instruction_out [77] $end
$var wire 1 < Instruction_out [76] $end
$var wire 1 = Instruction_out [75] $end
$var wire 1 > Instruction_out [74] $end
$var wire 1 ? Instruction_out [73] $end
$var wire 1 @ Instruction_out [72] $end
$var wire 1 A Instruction_out [71] $end
$var wire 1 B Instruction_out [70] $end
$var wire 1 C Instruction_out [69] $end
$var wire 1 D Instruction_out [68] $end
$var wire 1 E Instruction_out [67] $end
$var wire 1 F Instruction_out [66] $end
$var wire 1 G Instruction_out [65] $end
$var wire 1 H Instruction_out [64] $end
$var wire 1 I Instruction_out [63] $end
$var wire 1 J Instruction_out [62] $end
$var wire 1 K Instruction_out [61] $end
$var wire 1 L Instruction_out [60] $end
$var wire 1 M Instruction_out [59] $end
$var wire 1 N Instruction_out [58] $end
$var wire 1 O Instruction_out [57] $end
$var wire 1 P Instruction_out [56] $end
$var wire 1 Q Instruction_out [55] $end
$var wire 1 R Instruction_out [54] $end
$var wire 1 S Instruction_out [53] $end
$var wire 1 T Instruction_out [52] $end
$var wire 1 U Instruction_out [51] $end
$var wire 1 V Instruction_out [50] $end
$var wire 1 W Instruction_out [49] $end
$var wire 1 X Instruction_out [48] $end
$var wire 1 Y Instruction_out [47] $end
$var wire 1 Z Instruction_out [46] $end
$var wire 1 [ Instruction_out [45] $end
$var wire 1 \ Instruction_out [44] $end
$var wire 1 ] Instruction_out [43] $end
$var wire 1 ^ Instruction_out [42] $end
$var wire 1 _ Instruction_out [41] $end
$var wire 1 ` Instruction_out [40] $end
$var wire 1 a Instruction_out [39] $end
$var wire 1 b Instruction_out [38] $end
$var wire 1 c Instruction_out [37] $end
$var wire 1 d Instruction_out [36] $end
$var wire 1 e Instruction_out [35] $end
$var wire 1 f Instruction_out [34] $end
$var wire 1 g Instruction_out [33] $end
$var wire 1 h Instruction_out [32] $end
$var wire 1 i Instruction_out [31] $end
$var wire 1 j Instruction_out [30] $end
$var wire 1 k Instruction_out [29] $end
$var wire 1 l Instruction_out [28] $end
$var wire 1 m Instruction_out [27] $end
$var wire 1 n Instruction_out [26] $end
$var wire 1 o Instruction_out [25] $end
$var wire 1 p Instruction_out [24] $end
$var wire 1 q Instruction_out [23] $end
$var wire 1 r Instruction_out [22] $end
$var wire 1 s Instruction_out [21] $end
$var wire 1 t Instruction_out [20] $end
$var wire 1 u Instruction_out [19] $end
$var wire 1 v Instruction_out [18] $end
$var wire 1 w Instruction_out [17] $end
$var wire 1 x Instruction_out [16] $end
$var wire 1 y Instruction_out [15] $end
$var wire 1 z Instruction_out [14] $end
$var wire 1 { Instruction_out [13] $end
$var wire 1 | Instruction_out [12] $end
$var wire 1 } Instruction_out [11] $end
$var wire 1 ~ Instruction_out [10] $end
$var wire 1 !! Instruction_out [9] $end
$var wire 1 "! Instruction_out [8] $end
$var wire 1 #! Instruction_out [7] $end
$var wire 1 $! Instruction_out [6] $end
$var wire 1 %! Instruction_out [5] $end
$var wire 1 &! Instruction_out [4] $end
$var wire 1 '! Instruction_out [3] $end
$var wire 1 (! Instruction_out [2] $end
$var wire 1 )! Instruction_out [1] $end
$var wire 1 *! Instruction_out [0] $end
$var wire 1 +! InstructionAck $end
$var wire 1 ,! OutputReady $end
$var reg 108 -! Instruction [107:0] $end
$var reg 8 .! InsTagIn [7:0] $end
$var reg 4 /! Opcode [3:0] $end
$var reg 32 0! x_processor [31:0] $end
$var reg 32 1! y_processor [31:0] $end
$var reg 32 2! z_processor [31:0] $end
$var reg 1 3! clk $end
$upscope $end
$enddefinitions $end
#1000000
$dumpvars
b1100010100001111110101011001110111010011110011111101111010111000010100011100111110111101011100001010001111 -!
b110010 .!
b0 /!
b111110111110101110000101000111 0!
b111111011111010111000010100011 1!
b111111010110101110111100100001 2!
03!
0*!
1)!
1(!
0'!
1&!
1%!
0$!
1#!
1"!
1!!
0~
0}
0|
0{
1z
1y
1x
1w
1v
1u
0t
0s
1r
1q
1p
1o
1n
1m
1l
1k
0j
0i
0h
1g
1f
0e
1d
1c
0b
1a
1`
1_
0^
0]
0\
0[
1Z
1Y
1X
1W
1V
1U
0T
0S
1R
1Q
1P
1O
1N
1M
1L
1K
0J
0I
0H
0G
0F
0E
0D
0C
0B
0A
0@
0?
0>
0=
0<
0;
0:
09
08
07
06
05
04
03
02
01
00
0/
0.
0-
0,
0+
0*
0)
1(
0'
1&
1%
1$
0#
0"
0!
0+!
1,!
$end
#1010000
b1100100000001111110101101011101111001000010011111101111101011100001010001100111110111110101110000101000111 -!
13!
0,!
#1020000
b110011 .!
b1 /!
b111111000000000000000000000000 0!
b111111100000000000000000000000 1!
b111111010111110110011011110010 2!
03!
#1030000
b1100110001001111110101111101100110111100100011111110000000000000000000000000111111000000000000000000000000 -!
13!
1+!
#1040000
b110100 .!
b10 /!
b111111000000101000111101011100 0!
b111111100000010100011110101110 1!
b111111011000111101111011000100 2!
03!
#1050000
b1101000010001111110110001111011110110001000011111110000001010001111010111000111111000000101000111101011100 -!
13!
#1060000
b110101 .!
b11 /!
b111111000001010001111010111000 0!
b111111100000101000111101011100 1!
b111111011010000101011010010110 2!
03!
#1070000
b1101010011001111110110100001010110100101100011111110000010100011110101110000111111000001010001111010111000 -!
13!
0+!
#1080000
b110110 .!
b100 /!
b111111000001111010111000010100 0!
b111111100000111101011100001010 1!
b111111011011001100111001100111 2!
03!
#1090000
b1101100100001111110110110011001110011001110011111110000011110101110000101000111111000001111010111000010100 -!
13!
0)!
0(!
0&!
0!!
1~
1{
0z
0x
0w
0v
0u
1s
0g
0f
0d
0_
1^
1[
0Z
0X
0W
0V
0U
1S
0(
1'
0&
0%
0$
1#
1,!
#1100000
b110111 .!
b0 /!
b111111000010100011110101110000 0!
b111111100001010001111010111000 1!
b111111011100010100011000111001 2!
03!
#1110000
b1101110000001111110111000101000110001110010011111110000101000111101011100000111111000010100011110101110000 -!
13!
#1120000
b111000 .!
b1 /!
b111111000011001100110011001100 0!
b111111100001100110011001100110 1!
b111111011101011011111000001011 2!
03!
#1130000
b1110000001001111110111010110111110000010110011111110000110011001100110011000111111000011001100110011001100 -!
13!
1+!
0,!
#1140000
b111001 .!
b10 /!
b111111000011110101110000101000 0!
b111111100001111010111000010100 1!
b111111011110100011010111011100 2!
03!
#1150000
b1110010010001111110111101000110101110111000011111110000111101011100001010000111111000011110101110000101000 -!
13!
#1160000
b111010 .!
b11 /!
b111111000100011110101110000101 0!
b111111100010001111010111000010 1!
b111111011111101010110110101110 2!
03!
#1170000
b1110100011001111110111111010101101101011100011111110001000111101011100001000111111000100011110101110000101 -!
13!
0+!
#1180000
b111011 .!
b100 /!
b111111000101000111101011100001 0!
b111111100010100011110101110000 1!
b111111100000011001001011000000 2!
03!
#1190000
b1110110100001111111000000110010010110000000011111110001010001111010111000000111111000101000111101011100001 -!
13!
0%!
1$!
0#!
1!!
0~
1|
0{
1z
1w
1u
0s
0q
1f
1e
0c
1b
0`
1_
0^
1\
0Y
1V
1U
1T
0S
0R
0Q
0'
1%
1,!
#1200000
b111100 .!
b0 /!
b111111000101110000101000111101 0!
b111111100010111000010100011110 1!
b111111100000111100111010101000 2!
03!
#1210000
b1111000000001111111000001111001110101010000011111110001011100001010001111000111111000101110000101000111101 -!
13!
#1220000
b111101 .!
b1 /!
b111111000110011001100110011001 0!
b111111100011001100110011001100 1!
b111111100001100000101010010001 2!
03!
#1230000
b1111010001001111111000011000001010100100010011111110001100110011001100110000111111000110011001100110011001 -!
13!
0,!
#1240000
b111110 .!
b10 /!
b111111000111000010100011110101 0!
b111111100011100001010001111010 1!
b111111100010000100011001111010 2!
03!
#1250000
b1111100010001111111000100001000110011110100011111110001110000101000111101000111111000111000010100011110101 -!
13!
1+!
#1260000
b111111 .!
b11 /!
b111111000111101011100001010001 0!
b111111100011110101110000101000 1!
b111111100010101000001001100011 2!
03!
#1270000
b1111110011001111111000101010000010011000110011111110001111010111000010100000111111000111101011100001010001 -!
13!
#1280000
b1000000 .!
b100 /!
b111111001000010100011110101110 0!
b111111100100001010001111010111 1!
b111111100011001011111001001100 2!
03!
#1290000
b10000000100001111111000110010111110010011000011111110010000101000111101011100111111001000010100011110101110 -!
13!
0+!
#1300000
b1000001 .!
b0 /!
b111111001000111101011100001010 0!
b111111100100011110101110000101 1!
b111111100011101111101000110101 2!
03!
#1310000
b10000010000001111111000111011111010001101010011111110010001111010111000010100111111001000111101011100001010 -!
13!
1*!
1)!
1(!
1&!
1%!
1#!
1~
1}
0|
0y
1x
1t
1s
0r
1h
0f
0e
1c
1`
1^
1]
1Z
1W
0T
1S
1(
1&
1+!
1,!
#1320000
b1000010 .!
b1 /!
b111111001001100110011001100110 0!
b111111100100110011001100110011 1!
b111111100100010011011000011101 2!
03!
#1330000
b10000100001001111111001000100110110000111010011111110010011001100110011001100111111001001100110011001100110 -!
13!
#1340000
b1000011 .!
b10 /!
b111111001010001111010111000010 0!
b111111100101000111101011100001 1!
b111111100100110111001000000110 2!
03!
#1350000
b10000110010001111111001001101110010000001100011111110010100011110101110000100111111001010001111010111000010 -!
13!
0,!
#1360000
b1000100 .!
b11 /!
b111111001010111000010100011110 0!
b111111100101011100001010001111 1!
b111111100101011010110111101111 2!
03!
#1370000
b10001000011001111111001010110101101111011110011111110010101110000101000111100111111001010111000010100011110 -!
13!
0*!
0)!
0(!
0&!
0%!
0#!
0"!
0!!
0}
1|
1{
0z
1y
0x
0u
0s
1q
1f
1e
1d
0a
0\
1X
0U
1T
0S
0M
1I
1'
0%
0#
1,!
#1380000
b1000101 .!
b100 /!
b111111001011100001010001111010 0!
b111111100101110000101000111101 1!
b111111100101111110100111011000 2!
03!
#1390000
b10001010100001111111001011111101001110110000011111110010111000010100011110100111111001011100001010001111010 -!
13!
1'!
1%!
1"!
1!!
0{
1z
0y
1r
0q
0h
1g
0f
0e
0b
1a
0^
0[
0X
0T
1S
1R
1Q
1G
1F
1B
1?
1>
1=
19
18
17
13
11
1-
1,
1+
0(
0'
0&
1%
0+!
#1400000
b1000110 .!
b0 /!
b111111001100001010001111010111 0!
b111111100110000101000111101011 1!
b111111100110100010010111000001 2!
03!
#1410000
b10001100000001111111001101000100101110000010011111110011000010100011110101100111111001100001010001111010111 -!
13!
1*!
1(!
1&!
0%!
0$!
1#!
0"!
0!!
0w
1s
0r
1q
1h
0g
1e
0d
0c
0`
1^
0Z
1Y
0V
1T
0Q
1M
0I
0G
0F
0B
0?
0>
0=
09
08
07
03
01
0-
0,
0+
1(
1'
0%
1$
1#
#1420000
b1000111 .!
b1 /!
b111111001100110011001100110011 0!
b111111100110011001100110011001 1!
b111111100111000110000110101010 2!
03!
#1430000
b10001110001001111111001110001100001101010100011111110011001100110011001100100111111001100110011001100110011 -!
13!
1+!
#1440000
b1001000 .!
b10 /!
b111111001101011100001010001111 0!
b111111100110101110000101000111 1!
b111111100111101001110110010010 2!
03!
#1450000
b10010000010001111111001111010011101100100100011111110011010111000010100011100111111001101011100001010001111 -!
13!
0,!
#1460000
b1001001 .!
b11 /!
b111111001110000101000111101011 0!
b111111100111000010100011110101 1!
b111111101000001101100101111011 2!
03!
#1470000
b10010010011001111111010000011011001011110110011111110011100001010001111010100111111001110000101000111101011 -!
13!
#1480000
b1001010 .!
b100 /!
b111111001110101110000101000111 0!
b111111100111010111000010100011 1!
b111111101000110001010101100100 2!
03!
#1490000
b10010100100001111111010001100010101011001000011111110011101011100001010001100111111001110101110000101000111 -!
13!
0'!
0&!
1"!
1!!
1}
0|
1{
0z
1y
1x
1w
1v
1u
0t
0s
1g
1d
1c
1b
0a
0^
1[
1X
0W
1U
0T
0R
1Q
0M
1I
1F
1E
1C
1A
1@
1>
1;
1:
19
17
16
15
12
11
1-
1,
1+
0(
0$
0#
1,!
#1500000
b1001011 .!
b0 /!
b111111001111010111000010100011 0!
b111111100111101011100001010001 1!
b111111101001010101000101001101 2!
03!
#1510000
b10010110000001111111010010101010001010011010011111110011110101110000101000100111111001111010111000010100011 -!
13!
0*!
1$!
0"!
0~
0x
0v
1t
1r
0q
0g
1a
1\
0X
0U
0Q
0I
0F
0E
0C
0A
0@
0>
0;
0:
09
07
06
05
02
01
0-
0,
0+
1(
0+!
#1520000
b1001100 .!
b1 /!
b111111001111111111111111111111 0!
b111111100111111111111111111111 1!
b111111101001111000110100110110 2!
03!
#1530000
b10011000001001111111010011110001101001101100011111110011111111111111111111100111111001111111111111111111111 -!
13!
1&!
0$!
0#!
1~
1|
1z
0y
0w
1v
1s
0r
1q
0e
1`
0_
1^
0[
1Z
0Y
1W
1U
0S
1Q
1M
0(
0'
1%
1$
1#
#1540000
b1001101 .!
b10 /!
b111111010000101000111101011100 0!
b111111101000010100011110101110 1!
b111111101010011100100100011111 2!
03!
#1550000
b10011010010001111111010100111001001000111110011111110100001010001111010111000111111010000101000111101011100 -!
13!
#1560000
b1001110 .!
b11 /!
b111111010001010001111010111000 0!
b111111101000101000111101011100 1!
b111111101011000000010100000111 2!
03!
#1570000
b10011100011001111111010110000000101000001110011111110100010100011110101110000111111010001010001111010111000 -!
13!
1+!
0,!
#1580000
b1001111 .!
b100 /!
b111111010001111010111000010100 0!
b111111101000111101011100001010 1!
b111111101011100100000011110000 2!
03!
#1590000
b10011110100001111111010111001000000111100000011111110100011110101110000101000111111010001111010111000010100 -!
13!
#1600000
b1010000 .!
b0 /!
b111111010010100011110101110000 0!
b111111101001010001111010111000 1!
b111111101100000111110011011001 2!
03!
#1610000
b10100000000001111111011000001111100110110010011111110100101000111101011100000111111010010100011110101110000 -!
13!
0+!
#1620000
b1010001 .!
b1 /!
b111111010011001100110011001100 0!
b111111101001100110011001100110 1!
b111111101100101011100011000010 2!
03!
#1630000
b10100010001001111111011001010111000110000100011111110100110011001100110011000111111010011001100110011001100 -!
13!
1$!
0!!
0~
1y
1x
0t
0q
0p
0o
0n
0m
0l
0k
1j
0h
1f
0c
0a
0`
0^
1[
1Y
1X
0W
1V
1S
0Q
0P
0O
0N
0M
0L
0K
1J
0%
0$
0#
1"
1,!
#1640000
b1010010 .!
b10 /!
b111111010011110101110000101000 0!
b111111101001111010111000010100 1!
b111111101101001111010010101011 2!
03!
#1650000
b10100100010001111111011010011110100101010110011111110100111101011100001010000111111010011110101110000101000 -!
13!
1)!
0(!
0&!
1"!
0}
0{
0y
0x
1w
0v
0s
1p
1o
1n
1m
1l
1k
0j
1g
0d
1c
0b
1a
1_
0\
0Y
1W
0U
1T
0S
1R
1P
1O
1N
1M
1L
1K
0J
1(
#1660000
b1010011 .!
b11 /!
b111111010100011110101110000101 0!
b111111101010001111010111000010 1!
b111111101101110011000010010011 2!
03!
#1670000
b10100110011001111111011011100110000100100110011111110101000111101011100001000111111010100011110101110000101 -!
13!
0,!
#1680000
b1010100 .!
b100 /!
b111111010101000111101011100001 0!
b111111101010100011110101110000 1!
b111111101110010110110001111100 2!
03!
#1690000
b10101000100001111111011100101101100011111000011111110101010001111010111000000111111010101000111101011100001 -!
13!
1+!
#1700000
b1010101 .!
b0 /!
b111111010101110000101000111101 0!
b111111101010111000010100011110 1!
b111111101110111010100001100101 2!
03!
#1710000
b10101010000001111111011101110101000011001010011111110101011100001010001111000111111010101110000101000111101 -!
13!
#1720000
b1010110 .!
b1 /!
b111111010110011001100110011001 0!
b111111101011001100110011001100 1!
b111111101111011110010001001110 2!
03!
#1730000
b10101100001001111111011110111100100010011100011111110101100110011001100110000111111010110011001100110011001 -!
13!
#1740000
b1010111 .!
b10 /!
b111111010111000010100011110101 0!
b111111101011100001010001111010 1!
b111111110000000010000000110111 2!
03!
#1750000
b10101110010001111111100000000100000001101110011111110101110000101000111101000111111010111000010100011110101 -!
13!
0(
1'
1&
0+!
1,!
#1760000
b1011000 .!
b11 /!
b111111010111101011100001010001 0!
b111111101011110101110000101000 1!
b111111110000100101110000100000 2!
03!
#1770000
b10110000011001111111100001001011100001000000011111110101111010111000010100000111111010111101011100001010001 -!
13!
1*!
1'!
1%!
0$!
1#!
1!!
0|
0z
1y
1x
0w
1v
0u
1r
1q
1e
1d
1b
0_
1^
0X
0R
1Q
1(
#1780000
b1011001 .!
b100 /!
b111111011000010100011110101110 0!
b111111101100001010001111010111 1!
b111111110001001001100000001000 2!
03!
#1790000
b10110010100001111111100010010011000000010000011111110110000101000111101011100111111011000010100011110101110 -!
13!
0'!
1&!
0%!
0!!
1~
1}
1|
1z
0y
0v
1u
1t
0r
1h
0f
0e
0d
0a
0[
0Z
1Y
1U
1S
1R
0O
0M
0'
0&
1$
0"
#1800000
b1011010 .!
b0 /!
b111111011000111101011100001010 0!
b111111101100011110101110000101 1!
b111111110001101101001111110001 2!
03!
#1810000
b10110100000001111111100011011010011111100010011111110110001111010111000010100111111011000111101011100001010 -!
13!
0,!
#1820000
b1011011 .!
b1 /!
b111111011001100110011001100110 0!
b111111101100110011001100110011 1!
b111111110010010000111111011010 2!
03!
#1830000
b10110110001001111111100100100001111110110100011111110110011001100110011001100111111011001100110011001100110 -!
13!
#1840000
b1011100 .!
b10 /!
b111111011010001111010111000010 0!
b111111101101000111101011100001 1!
b111111110010110100101111000011 2!
03!
#1850000
b10111000010001111111100101101001011110000110011111110110100011110101110000100111111011010001111010111000010 -!
13!
#1860000
b1011101 .!
b11 /!
b111111011010111000010100011110 0!
b111111101101011100001010001111 1!
b111111110011011000011110101100 2!
03!
#1870000
b10111010011001111111100110110000111101011000011111110110101110000101000111100111111011010111000010100011110 -!
13!
#1880000
b1011110 .!
b100 /!
b111111011011100001010001111010 0!
b111111101101110000101000111101 1!
b111111110011111100001110010101 2!
03!
#1890000
b10111100100001111111100111111000011100101010011111110110111000010100011110100111111011011100001010001111010 -!
13!
#1900000
b1011111 .!
b0 /!
b111111011100001010001111010111 0!
b111111101110000101000111101011 1!
b111111110100011111111101111101 2!
03!
#1910000
b10111110000001111111101000111111111011111010011111110111000010100011110101100111111011100001010001111010111 -!
13!
#1920000
b1100000 .!
b1 /!
b111111011100110011001100110011 0!
b111111101110011001100110011001 1!
b111111110101000011101101100110 2!
03!
#1930000
b11000000001001111111101010000111011011001100011111110111001100110011001100100111111011100110011001100110011 -!
13!
#1940000
b1100001 .!
b10 /!
b111111011101011100001010001111 0!
b111111101110101110000101000111 1!
b111111110101100111011101001111 2!
03!
#1950000
b11000010010001111111101011001110111010011110011111110111010111000010100011100111111011101011100001010001111 -!
13!
#1960000
b1100010 .!
b11 /!
b111111011110000101000111101011 0!
b111111101111000010100011110101 1!
b111111110110001011001100111000 2!
03!
#1970000
b11000100011001111111101100010110011001110000011111110111100001010001111010100111111011110000101000111101011 -!
13!
#1980000
b1100011 .!
b100 /!
b111111011110101110000101000111 0!
b111111101111010111000010100011 1!
b111111110110101110111100100001 2!
03!
#1990000
b11000110100001111111101101011101111001000010011111110111101011100001010001100111111011110101110000101000111 -!
13!
#2000000
b1100100 .!
b0 /!
b111111011111010111000010100011 0!
b111111101111101011100001010001 1!
b111111110111010010101100001010 2!
03!
#2010000
b11001000000001111111101110100101011000010100011111110111110101110000101000100111111011111010111000010100011 -!
13!
